ATAP Workshop: Telemetry Quality Control – ATAP Telemetry Workshop
…
# A tibble: 2 × 2
  transmitter     n
  <chr>       <int>
1 5211         4638
2 5211a         200

Look at the detections in time order.

Code

detections %>% 
  filter(transmitter %in% c("5211", "5211a")) %>% 
  arrange(timestamp)

# A tibble: 4,838 × 6
   timestamp           receiver station_name latitude longitude transmitter
   <dttm>              <chr>    <chr>           <dbl>     <dbl> <chr>      
 1 2021-07-23 14:49:29 546770   PSJ002          -31.6      29.6 5211       
 2 2021-07-23 14:49:29 546770   PSJ002          -31.6      29.6 5211       
 3 2021-07-23 14:49:29 546770   PSJ002          -31.6      29.6 5211a      
 4 2021-07-23 14:51:16 546770   PSJ002          -31.6      29.6 5211       
 5 2021-07-23 14:51:16 546770   PSJ002          -31.6      29.6 5211       
 6 2021-07-23 14:51:16 546770   PSJ002          -31.6      29.6 5211a      
 7 2021-07-23 14:52:22 546770   PSJ002          -31.6      29.6 5211       
 8 2021-07-23 14:52:22 546770   PSJ002          -31.6      29.6 5211       
 9 2021-07-23 14:52:22 546770   PSJ002          -31.6      29.6 5211a      
10 2021-07-23 14:53:08 546770   PSJ002          -31.6      29.6 5211       
# ℹ 4,828 more rows

It appears that 5211a detections are duplicates of 5211. We can inspect the duplicated records directly.

Code

detections %>% 
  filter(transmitter %in% c("5211", "5211a")) %>% 
  group_by(timestamp, station_name) %>% 
  filter(n() > 1) %>% 
  arrange(timestamp)

# A tibble: 4,838 × 6
# Groups:   timestamp, station_name [2,319]
   timestamp           receiver station_name latitude longitude transmitter
   <dttm>              <chr>    <chr>           <dbl>     <dbl> <chr>      
 1 2021-07-23 14:49:29 546770   PSJ002          -31.6      29.6 5211       
 2 2021-07-23 14:49:29 546770   PSJ002          -31.6      29.6 5211       
 3 2021-07-23 14:49:29 546770   PSJ002          -31.6      29.6 5211a      
 4 2021-07-23 14:51:16 546770   PSJ002          -31.6      29.6 5211       
 5 2021-07-23 14:51:16 546770   PSJ002          -31.6      29.6 5211       
 6 2021-07-23 14:51:16 546770   PSJ002          -31.6      29.6 5211a      
 7 2021-07-23 14:52:22 546770   PSJ002          -31.6      29.6 5211       
 8 2021-07-23 14:52:22 546770   PSJ002          -31.6      29.6 5211       
 9 2021-07-23 14:52:22 546770   PSJ002          -31.6      29.6 5211a      
10 2021-07-23 14:53:08 546770   PSJ002          -31.6      29.6 5211       
# ℹ 4,828 more rows
…
Check duplicate detections

Now check whether there are exact duplicate records.

Code

detections %>% 
  group_by(across(everything())) %>% 
  filter(n() > 1)

# A tibble: 4,638 × 6
# Groups:   timestamp, receiver, station_name, latitude, longitude, transmitter
#   [2,319]
   timestamp           receiver station_name latitude longitude transmitter
   <dttm>              <chr>    <chr>           <dbl>     <dbl> <chr>      
 1 2021-07-23 14:49:29 546770   PSJ002          -31.6      29.6 5211       
 2 2021-07-23 14:51:16 546770   PSJ002          -31.6      29.6 5211       
 3 2021-07-23 14:52:22 546770   PSJ002          -31.6      29.6 5211       
 4 2021-07-23 14:53:08 546770   PSJ002          -31.6      29.6 5211       
 5 2021-07-23 14:53:53 546770   PSJ002          -31.6      29.6 5211       
 6 2021-07-23 14:54:40 546770   PSJ002          -31.6      29.6 5211       
 7 2021-07-23 14:55:28 546770   PSJ002          -31.6      29.6 5211       
 8 2021-07-23 14:56:17 546770   PSJ002          -31.6      29.6 5211       
 9 2021-07-23 14:57:09 546770   PSJ002          -31.6      29.6 5211       
10 2021-07-23 14:58:08 546770   PSJ002          -31.6      29.6 5211       
# ℹ 4,628 more rows
…
For downstream packages such as actel and rsp, deployment and recovery times usually need to be accurate. If researchers have not reported exact times, you may need to create reasonable deployment windows based on field notes or rollover dates.

Count deployment rows

Look at the number of deployment rows per receiver station.

Code

receiver %>% 
  count(station_name, sort = TRUE) %>% 
  print(n = 30)

# A tibble: 459 × 2
   station_name               n
   <chr>                  <int>
 1 Cape Recife Offshore 1    21
 2 AB001                     20
 3 AB002                     20
 4 AB003                     20
 5 AB004                     20
 6 AB005                     20
 7 AB006                     20
 8 AB007                     20
 9 Bird Island 1             20
10 JP002                     20
11 JP003                     20
12 Sundays Offshore 1        20
13 Woody Cape Offshore 1     20
14 Central 60m               19
15 JP001                     19
16 MB002                     19
17 St Croix_ATAP             19
18 Woody Cape West           19
19 BRE03                     18
20 CSB001                    18
21 CSB002                    18
22 CSB003                    18
23 MB001                     18
24 MB003                     18
25 PA001                     18
26 PA002                     18
27 PA003                     18
28 PSJ001                    18
29 PSJ002                    18
30 CP002                     17
# ℹ 429 more rows
…
Code

lost_receiver_periods <- receiver %>% 
  filter(status == "lost") %>% 
  dplyr::select(
    station_name,
    receiver,
    deploymentdatetime_timestamp,
    recoverydatetime_timestamp,
    status
  )

print(lost_receiver_periods)

# A tibble: 119 × 5
   station_name receiver deploymentdatetime_time…¹ recoverydatetime_tim…² status
   <chr>        <chr>    <dttm>                    <dttm>                 <chr> 
 1 7 Mile       126055   2015-03-09 08:30:00       2016-06-30 00:00:00    lost  
 2 AB006        119618   2016-04-15 09:48:00       2016-10-17 00:00:00    lost  
 3 ALS001       119097   2020-09-17 14:00:00       2021-08-30 14:30:00    lost  
 4 ALS001       112338   2021-08-30 14:30:00       2022-10-12 11:27:00    lost  
 5 Berg001      112441   2018-03-13 10:55:00       2019-02-09 12:00:00    lost  
 6 Bluff 30m    <NA>     2024-02-29 08:09:00       2024-08-27 00:00:00    lost  
 7 Blythedale   129003   2016-06-28 00:00:00       2017-08-04 00:00:00    lost  
 8 BR001        119634   2019-07-04 11:24:00       2020-02-24 12:30:00    lost  
 9 BR002        112462   2021-12-10 09:07:00       2023-02-28 00:00:00    lost  
10 BRD000       545677   2020-10-05 08:18:00       2021-04-01 00:00:00    lost  
# ℹ 109 more rows
# ℹ abbreviated names: ¹​deploymentdatetime_timestamp,
#   ²​recoverydatetime_timestamp
…
receiver_gaps

# A tibble: 126 × 8
# Groups:   station_name [98]
   station_name         receiver_a deploymentdatetime_t…¹ recoverydatetime_tim…²
   <chr>                <chr>      <dttm>                 <dttm>                
 1 Black Rocks inside   112814     2015-03-30 00:00:00    2016-03-29 00:00:00   
 2 Great Fish           119625     2020-06-19 09:50:00    2021-10-29 09:30:00   
 3 KOW011               112384     2019-02-08 00:00:00    2020-10-15 11:00:00   
 4 MOZ001               112345     2019-06-07 09:30:00    2020-02-05 14:30:00   
 5 Knysna               102295     2015-11-18 06:33:00    2016-09-12 10:29:00   
 6 SIS                  545978     2019-03-30 15:28:00    2019-12-11 11:28:00   
 7 DI3 Doldrums/Sharka… 126264     2018-03-23 11:50:00    2018-12-10 11:30:00   
 8 DI2 Outside Geyser   126263     2018-03-23 11:30:00    2018-12-10 12:15:00   
 9 JDAM 2               126261     2018-03-23 12:20:00    2018-12-10 13:55:00   
10 Gansbaai Harbour     126266     2018-03-28 14:15:00    2018-12-10 15:40:00   
# ℹ 116 more rows
# ℹ abbreviated names: ¹​deploymentdatetime_timestamp_a,
#   ²​recoverydatetime_timestamp_a
# ℹ 4 more variables: receiver_b <chr>, deploymentdatetime_timestamp_b <dttm>,
#   recoverydatetime_timestamp_b <dttm>, gap_days <dbl>
…
receiver_overlaps

# A tibble: 59 × 10
   station_name receiver_a deploymentdatetime_timestamp_a recoverydatetime_tim…¹
   <chr>        <chr>      <dttm>                         <dttm>                
 1 Kowie        120162     2019-12-04 12:00:00            2023-05-31 11:03:00   
 2 Mamoli 1     112381     2020-12-12 00:00:00            2023-12-02 00:00:00   
 3 MOZ001       120172     2021-12-09 00:00:00            2024-12-10 00:00:00   
 4 Evans Peak   113320     2016-06-02 00:00:00            2018-07-11 09:29:00   
 5 MOZ001       120172     2021-12-09 00:00:00            2024-12-10 00:00:00   
 6 Kowie        120162     2019-12-04 12:00:00            2023-05-31 11:03:00   
 7 WB002_b      120157     2021-11-15 10:04:00            2022-07-19 11:21:00   
 8 BRD003       546782     2017-07-02 12:46:00            2018-02-28 14:49:00   
 9 MB003        545677     2019-11-15 09:00:00            2020-07-03 13:42:00   
10 WB002_b      112336     2020-02-26 09:47:00            2022-07-15 00:00:00   
# ℹ 49 more rows
# ℹ abbreviated name: ¹​recoverydatetime_timestamp_a
# ℹ 6 more variables: receiver_b <chr>, deploymentdatetime_timestamp_b <dttm>,
#   recoverydatetime_timestamp_b <dttm>, overlap_start <dttm>,
#   overlap_end <dttm>, overlap_days <dbl>
…
receiver_effort

# A tibble: 565 × 6
   station_name effort_window effort_start        effort_end         
   <chr>                <dbl> <dttm>              <dttm>             
 1 2 mile 1                 1 2015-07-22 00:00:00 2025-01-18 13:20:00
 2 2 mile 2                 1 2015-07-22 00:00:00 2025-01-18 12:52:00
 3 2MRR1                    1 2016-05-11 00:00:00 2018-03-21 00:00:00
 4 2MRR2                    1 2016-05-11 00:00:00 2018-03-21 00:00:00
 5 2MRR3                    1 2016-05-11 00:00:00 2018-03-21 00:00:00
 6 2MRR4                    1 2016-05-11 00:00:00 2018-03-21 00:00:00
 7 9 mile 1                 1 2015-07-22 00:00:00 2025-01-18 12:01:00
 8 9 mile 2                 1 2015-07-22 00:00:00 2025-01-18 11:54:00
 9 AB001                    1 2015-04-21 06:33:00 2025-07-20 11:40:00
10 AB002                    1 2015-04-21 06:50:00 2025-07-20 11:28:00
# ℹ 555 more rows
# ℹ 2 more variables: n_receiver_deployments <int>, receivers_used <chr>
…
effort_comparison

# A tibble: 438 × 8
   station_name      assumed_start       assumed_end         assumed_effort_days
   <chr>             <dttm>              <dttm>                            <dbl>
 1 Black Rocks insi… 2015-03-30 00:00:00 2025-07-20 10:13:00               3765.
 2 Great Fish        2015-03-12 10:10:00 2025-05-05 15:00:00               3707.
 3 SIS               2015-12-04 10:35:00 2022-02-01 14:37:00               2251.
 4 KOW011            2019-02-08 00:00:00 2024-07-16 16:30:00               1986.
 5 MOZ001            2015-05-14 08:00:00 2024-12-10 00:00:00               3498.
 6 Knysna            2015-06-10 12:20:00 2024-12-04 18:39:00               3465.
 7 Sundays Offshore… 2015-05-13 00:00:00 2025-05-15 11:42:00               3655.
 8 MO5               2015-12-09 11:10:00 2025-05-16 10:15:00               3446.
 9 SIN               2015-12-04 09:56:00 2025-05-06 13:12:00               3441.
10 DI3 Doldrums/Sha… 2015-11-06 09:20:00 2021-02-13 11:00:00               1926.
# ℹ 428 more rows
# ℹ 4 more variables: cleaned_effort_days <dbl>, n_effort_windows <int>,
#   overestimation_days <dbl>, overestimation_percent <dbl>
…
