ATAP Workshop: Exploratory Figures – ATAP Telemetry Workshop
…
Lets inspect the speed calculations.

Code

detections_speed %>% 
  select(station_name, previous_station, time_diff_hours, distance_km, speed_kmh) %>% 
  arrange(desc(speed_kmh)) %>% 
  print(n = 20)

# A tibble: 55 × 5
   station_name       previous_station     time_diff_hours distance_km speed_kmh
   <chr>              <chr>                          <dbl>       <dbl>     <dbl>
 1 AMA008             KM003                           1.28        7.19      5.61
 2 KLM003             KLM008                          2.38       12.2       5.11
 3 KLM007             KLM008                          1.36        6.42      4.73
 4 PA003              KLM008                          3.36       15.8       4.69
 5 KLM014             KLM002                          2.89       12.8       4.43
 6 AMA008             KM001                           1.58        6.45      4.10
 7 KLM008             KM001                          37.0       147.        3.98
 8 AB002              Woody Cape Offshore…            2.14        8.52      3.98
 9 AB004              Woody Cape West                 6.25       24.8       3.98
10 GB003              MB007                           1.42        5.58      3.94
11 PA002              KM003                          42.1       163.        3.88
12 GB002              MB004                           1.31        5.05      3.85
13 KLM007             KLM008                          1.68        6.42      3.82
14 KLM008             KLM006                          1.73        6.53      3.78
15 GB003              MB004                           1.36        5.05      3.71
16 KLM008             KM001                          39.7       147.        3.71
17 Sundays Offshore 1 Woody Cape West                 4.19       15.4       3.67
18 GB001              MB001                           1.37        5.00      3.65
19 KLM008             KM001                          41.0       147.        3.59
20 DEH005             DEH003                          4.93       17.6       3.56
# ℹ 35 more rows
…
